{
	"info": {
		"_postman_id": "1bc6247e-10a5-4068-8c79-f0f1c2daf857",
		"name": "Network Designer",
		"schema": "https://schema.getpostman.com/json/collection/v2.1.0/collection.json"
	},
	"item": [
		{
			"name": "Users",
			"item": [
				{
					"name": "Create User",
					"request": {
						"method": "POST",
						"header": [
							{
								"key": "Content-Type",
								"name": "Content-Type",
								"value": "application/json",
								"type": "text"
							}
						],
						"body": {
							"mode": "raw",
							"raw": "{\n\t\"name\": \"Ivan\",\n\t\"surname\": \"Ivanovich\",\n\t\"username\": \"ivan123\",\n\t\"password\": \"123\",\n\t\"email\": \"ivan@mail.ru\",\n\t\"phone\": \"123123123\"\n}",
							"options": {
								"raw": {
									"language": "json"
								}
							}
						},
						"url": {
							"raw": "{{nd.host}}/users",
							"host": [
								"{{nd.host}}"
							],
							"path": [
								"users"
							]
						}
					},
					"response": []
				},
				{
					"name": "Get User By id",
					"request": {
						"method": "GET",
						"header": [],
						"url": {
							"raw": "{{nd.host}}/users/1",
							"host": [
								"{{nd.host}}"
							],
							"path": [
								"users",
								"1"
							]
						}
					},
					"response": []
				},
				{
					"name": "Update user info by id",
					"request": {
						"method": "PATCH",
						"header": [
							{
								"key": "Content-Type",
								"name": "Content-Type",
								"value": "application/json",
								"type": "text"
							}
						],
						"body": {
							"mode": "raw",
							"raw": "{\n\t\"name\": \"Petr\",\n\t\"surname\": \"Petrovich\",\n\t\"username\": \"ivan123\",\n\t\"password\": \"123\",\n\t\"email\": \"ivan@mail.ru\",\n\t\"phone\": \"783929123\"\n}",
							"options": {
								"raw": {
									"language": "json"
								}
							}
						},
						"url": {
							"raw": "{{nd.host}}/users/1",
							"host": [
								"{{nd.host}}"
							],
							"path": [
								"users",
								"1"
							]
						}
					},
					"response": []
				},
				{
					"name": "Get all available projects for user",
					"request": {
						"method": "GET",
						"header": [],
						"url": {
							"raw": "{{nd.host}}/users/1/projects",
							"host": [
								"{{nd.host}}"
							],
							"path": [
								"users",
								"1",
								"projects"
							]
						}
					},
					"response": []
				}
			],
			"protocolProfileBehavior": {}
		},
		{
			"name": "Project",
			"item": [
				{
					"name": "Get all projects",
					"request": {
						"method": "GET",
						"header": [],
						"url": {
							"raw": "{{nd.host}}/projects",
							"host": [
								"{{nd.host}}"
							],
							"path": [
								"projects"
							]
						}
					},
					"response": []
				},
				{
					"name": "Get project by id",
					"request": {
						"method": "GET",
						"header": [],
						"url": {
							"raw": "{{nd.host}}/projects/1",
							"host": [
								"{{nd.host}}"
							],
							"path": [
								"projects",
								"1"
							]
						}
					},
					"response": []
				},
				{
					"name": "Create project",
					"request": {
						"method": "POST",
						"header": [
							{
								"key": "Content-Type",
								"name": "Content-Type",
								"value": "application/json",
								"type": "text"
							}
						],
						"body": {
							"mode": "raw",
							"raw": "{\n\t\"name\": \"Initial Project\",\n\t\"description\": \"My First Project\",\n\t\"type\": \"private\"\n}",
							"options": {
								"raw": {
									"language": "json"
								}
							}
						},
						"url": {
							"raw": "{{nd.host}}/projects?ownerId=2",
							"host": [
								"{{nd.host}}"
							],
							"path": [
								"projects"
							],
							"query": [
								{
									"key": "ownerId",
									"value": "2"
								}
							]
						}
					},
					"response": []
				},
				{
					"name": "Create private project",
					"request": {
						"method": "GET",
						"header": [],
						"url": {
							"raw": ""
						}
					},
					"response": []
				},
				{
					"name": "Update project info",
					"request": {
						"method": "PATCH",
						"header": [
							{
								"key": "Content-Type",
								"name": "Content-Type",
								"value": "application/json",
								"type": "text"
							}
						],
						"body": {
							"mode": "raw",
							"raw": "{\n\t\"name\": \"New Project\",\n\t\"description\": \"Second version\",\n\t\"type\": \"private\"\n}",
							"options": {
								"raw": {
									"language": "json"
								}
							}
						},
						"url": {
							"raw": "{{nd.host}}/projects/1",
							"host": [
								"{{nd.host}}"
							],
							"path": [
								"projects",
								"1"
							]
						}
					},
					"response": []
				},
				{
					"name": "Add user in private project ",
					"request": {
						"method": "POST",
						"header": [],
						"url": {
							"raw": "{{nd.host}}/projects/2/members?userId=1",
							"host": [
								"{{nd.host}}"
							],
							"path": [
								"projects",
								"2",
								"members"
							],
							"query": [
								{
									"key": "userId",
									"value": "1"
								}
							]
						}
					},
					"response": []
				},
				{
					"name": "Get members of projeect",
					"request": {
						"method": "GET",
						"header": [],
						"url": {
							"raw": "{{nd.host}}/projects/1/members",
							"host": [
								"{{nd.host}}"
							],
							"path": [
								"projects",
								"1",
								"members"
							]
						}
					},
					"response": []
				},
				{
					"name": "Delete project by Id",
					"request": {
						"method": "DELETE",
						"header": [],
						"url": {
							"raw": "{{nd.host}}/projects/1",
							"host": [
								"{{nd.host}}"
							],
							"path": [
								"projects",
								"1"
							]
						}
					},
					"response": []
				},
				{
					"name": "Add Sheet to Project",
					"request": {
						"auth": {
							"type": "bearer",
							"bearer": [
								{
									"key": "token",
									"value": "eyJhbGciOiJIUzUxMiJ9.eyJzdWIiOiIxIiwiaWF0IjoxNTgxMDg3MTk4LCJleHAiOjE1ODEzMDMxOTh9.rbACqErO9QX3Qh3fiK3gIbtUHFIHeJ6s3_7la5a-5WNKCjjarlxXgvbEex9DHX6FDGshhPpt7BLEx11EaFlg8g",
									"type": "string"
								}
							]
						},
						"method": "POST",
						"header": [
							{
								"key": "Content-Type",
								"name": "Content-Type",
								"value": "application/json",
								"type": "text"
							}
						],
						"body": {
							"mode": "raw",
							"raw": "{\n\t\"name\":\"sheet1\"\n}",
							"options": {
								"raw": {
									"language": "json"
								}
							}
						},
						"url": {
							"raw": "{{nd.host}}/projects/1/sheets",
							"host": [
								"{{nd.host}}"
							],
							"path": [
								"projects",
								"1",
								"sheets"
							]
						}
					},
					"response": []
				},
				{
					"name": "Delete Member from Project.",
					"request": {
						"method": "DELETE",
						"header": [],
						"url": {
							"raw": "{{nd.host}}/projects/1/members/1",
							"host": [
								"{{nd.host}}"
							],
							"path": [
								"projects",
								"1",
								"members",
								"1"
							]
						}
					},
					"response": []
				}
			],
			"protocolProfileBehavior": {}
		},
		{
			"name": "Auth",
			"item": [
				{
					"name": "Sign Up",
					"request": {
						"method": "POST",
						"header": [
							{
								"key": "Content-Type",
								"name": "Content-Type",
								"value": "application/json",
								"type": "text"
							}
						],
						"body": {
							"mode": "raw",
							"raw": "{\n\t\"name\":\"Name\",\n\t\"surname\":\"Surname\",\n\t\"username\":\"Username\",\n\t\"password\":\"password\",\n\t\"email\":\"some_email@mail.com\"\n}",
							"options": {
								"raw": {
									"language": "json"
								}
							}
						},
						"url": {
							"raw": "{{nd.host}}/auth/signup",
							"host": [
								"{{nd.host}}"
							],
							"path": [
								"auth",
								"signup"
							]
						},
						"description": "User Login"
					},
					"response": []
				},
				{
					"name": "Sign In with Email",
					"request": {
						"method": "POST",
						"header": [
							{
								"key": "Content-Type",
								"name": "Content-Type",
								"type": "text",
								"value": "application/json"
							}
						],
						"body": {
							"mode": "raw",
							"raw": "{\n\t\"usernameOrEmail\":\"some_email@mail.com\",\n\t\"password\":\"password\"\n}",
							"options": {
								"raw": {
									"language": "json"
								}
							}
						},
						"url": {
							"raw": "{{nd.host}}/auth/signin",
							"host": [
								"{{nd.host}}"
							],
							"path": [
								"auth",
								"signin"
							]
						},
						"description": "User Login"
					},
					"response": []
				},
				{
					"name": "Sign In with Username",
					"request": {
						"method": "POST",
						"header": [
							{
								"key": "Content-Type",
								"name": "Content-Type",
								"value": "application/json",
								"type": "text"
							}
						],
						"body": {
							"mode": "raw",
							"raw": "{\n\t\"usernameOrEmail\":\"Username\",\n\t\"password\":\"password\"\n}",
							"options": {
								"raw": {
									"language": "json"
								}
							}
						},
						"url": {
							"raw": "{{nd.host}}/auth/signin",
							"host": [
								"{{nd.host}}"
							],
							"path": [
								"auth",
								"signin"
							]
						},
						"description": "User Login\n"
					},
					"response": []
				}
			],
			"protocolProfileBehavior": {}
		},
		{
			"name": "Model",
			"item": [
				{
					"name": "Upload yang file",
					"request": {
						"auth": {
							"type": "bearer",
							"bearer": [
								{
									"key": "token",
									"value": "eyJhbGciOiJIUzUxMiJ9.eyJzdWIiOiI1IiwiaWF0IjoxNTc2NDM1MzY0LCJleHAiOjE1NzY2NTEzNjR9.MBiExFndCtr-XiLIBDIqNt_EMTEzFqC0k2xtO19FWo73ITkKpuyNbn8hrdI-69TZfLyCuzrdXbaXEnB3YWBu4w",
									"type": "string"
								}
							]
						},
						"method": "POST",
						"header": [],
						"body": {
							"mode": "formdata",
							"formdata": [
								{
									"key": "file",
									"type": "file",
									"src": "router.yang"
								},
								{
									"key": "type",
									"value": "router",
									"type": "text"
								}
							]
						},
						"url": {
							"raw": "{{nd.host}}/models",
							"host": [
								"{{nd.host}}"
							],
							"path": [
								"models"
							]
						}
					},
					"response": []
				},
				{
					"name": "Get Model History",
					"request": {
						"method": "GET",
						"header": [],
						"url": {
							"raw": "{{nd.host}}/models",
							"host": [
								"{{nd.host}}"
							],
							"path": [
								"models"
							]
						}
					},
					"response": []
				},
				{
					"name": "Export Module",
					"request": {
						"method": "GET",
						"header": [],
						"url": {
							"raw": ""
						}
					},
					"response": []
				},
				{
					"name": "Get Content of Yang File",
					"request": {
						"method": "GET",
						"header": [],
						"url": {
							"raw": ""
						}
					},
					"response": []
				}
			],
			"protocolProfileBehavior": {}
		},
		{
			"name": "Mongo",
			"item": [
				{
					"name": "Get Document by Id",
					"protocolProfileBehavior": {
						"disableBodyPruning": true
					},
					"request": {
						"auth": {
							"type": "bearer",
							"bearer": [
								{
									"key": "token",
									"value": "eyJhbGciOiJIUzUxMiJ9.eyJzdWIiOiI1IiwiaWF0IjoxNTgwMzE4MTkzLCJleHAiOjE1ODA1MzQxOTN9.zZ_mZ3-aFLyAt7y81o4auzr5ldkOHcbmbW_9DjLrjq9dddfUTcDZ5kftwqyVl2dpdmtFC_DO8NJ1dpoWSDUtvw",
									"type": "string"
								}
							]
						},
						"method": "GET",
						"header": [
							{
								"key": "Content-Type",
								"name": "Content-Type",
								"value": "application/json",
								"type": "text"
							}
						],
						"body": {
							"mode": "raw",
							"raw": "{\n\t\"firstname\":\"Maxim\",\n\t\"lastname\":\"Termosa\",\n\t\"type\":\"special\"\n}",
							"options": {
								"raw": {
									"language": "json"
								}
							}
						},
						"url": {
							"raw": "{{nd.host}}/storage/firewalls/5e31f57d5cf8d70774c0992e?",
							"host": [
								"{{nd.host}}"
							],
							"path": [
								"storage",
								"firewalls",
								"5e31f57d5cf8d70774c0992e"
							],
							"query": [
								{
									"key": "id",
									"value": "",
									"disabled": true
								}
							]
						}
					},
					"response": []
				},
				{
					"name": "Get All Documents",
					"request": {
						"auth": {
							"type": "bearer",
							"bearer": [
								{
									"key": "token",
									"value": "eyJhbGciOiJIUzUxMiJ9.eyJzdWIiOiI1IiwiaWF0IjoxNTgwMzMxOTQ2LCJleHAiOjE1ODA1NDc5NDZ9.x8QYq4kHhR4tD2sHFd0heVzbqHCpp2-MEOjI4c5T9_XuSp2zr4u61nz4LckA6smJzCH4iN2EcLdbnmCjvTR8aA",
									"type": "string"
								}
							]
						},
						"method": "GET",
						"header": [],
						"url": {
							"raw": "{{nd.host}}/storage/firewalls",
							"host": [
								"{{nd.host}}"
							],
							"path": [
								"storage",
								"firewalls"
							]
						}
					},
					"response": []
				},
				{
					"name": "Delete Document by Id",
					"request": {
						"auth": {
							"type": "bearer",
							"bearer": [
								{
									"key": "token",
									"value": "eyJhbGciOiJIUzUxMiJ9.eyJzdWIiOiI1IiwiaWF0IjoxNTgwMzMxOTQ2LCJleHAiOjE1ODA1NDc5NDZ9.x8QYq4kHhR4tD2sHFd0heVzbqHCpp2-MEOjI4c5T9_XuSp2zr4u61nz4LckA6smJzCH4iN2EcLdbnmCjvTR8aA",
									"type": "string"
								}
							]
						},
						"method": "DELETE",
						"header": [],
						"url": {
							"raw": "{{nd.host}}/storage/firewalls/5e31f4635cf8d74524d07602",
							"host": [
								"{{nd.host}}"
							],
							"path": [
								"storage",
								"firewalls",
								"5e31f4635cf8d74524d07602"
							]
						}
					},
					"response": []
				},
				{
					"name": "Insert Document",
					"request": {
						"auth": {
							"type": "bearer",
							"bearer": [
								{
									"key": "token",
									"value": "eyJhbGciOiJIUzUxMiJ9.eyJzdWIiOiI1IiwiaWF0IjoxNTgwMTE5OTExLCJleHAiOjE1ODAzMzU5MTF9.qwBlV2yZF3TxQd0vKNdQsPOO2zzbUPNAvIyo0OayojlEfY8nEpM6q3ba-m7ErsMv-e72psmN6HkSfK8l8rCnwA",
									"type": "string"
								}
							]
						},
						"method": "POST",
						"header": [
							{
								"key": "Content-Type",
								"name": "Content-Type",
								"value": "application/json",
								"type": "text"
							}
						],
						"body": {
							"mode": "raw",
							"raw": "{\n\t\"firewall\":\"some_params3\"\n}",
							"options": {
								"raw": {
									"language": "json"
								}
							}
						},
						"url": {
							"raw": "{{nd.host}}/storage/firewalls",
							"host": [
								"{{nd.host}}"
							],
							"path": [
								"storage",
								"firewalls"
							]
						}
					},
					"response": []
				},
				{
					"name": "Update Document",
					"request": {
						"auth": {
							"type": "bearer",
							"bearer": [
								{
									"key": "token",
									"value": "eyJhbGciOiJIUzUxMiJ9.eyJzdWIiOiI1IiwiaWF0IjoxNTgwMzE4MTkzLCJleHAiOjE1ODA1MzQxOTN9.zZ_mZ3-aFLyAt7y81o4auzr5ldkOHcbmbW_9DjLrjq9dddfUTcDZ5kftwqyVl2dpdmtFC_DO8NJ1dpoWSDUtvw",
									"type": "string"
								}
							]
						},
						"method": "PUT",
						"header": [
							{
								"key": "Content-Type",
								"name": "Content-Type",
								"value": "application/json",
								"type": "text"
							}
						],
						"body": {
							"mode": "raw",
							"raw": "    {\r\n        \"firewall\": \"here on top should bi id 5e31f5765cf8d70774c0992d\"\r\n    }",
							"options": {
								"raw": {
									"language": "json"
								}
							}
						},
						"url": {
							"raw": "{{nd.host}}/storage/firewalls/5e31f5765cf8d70774c0992d",
							"host": [
								"{{nd.host}}"
							],
							"path": [
								"storage",
								"firewalls",
								"5e31f5765cf8d70774c0992d"
							]
						}
					},
					"response": []
				}
			],
			"protocolProfileBehavior": {}
		},
		{
			"name": "Sheets",
			"item": [
				{
					"name": "Get All Sheets",
					"request": {
						"auth": {
							"type": "bearer",
							"bearer": [
								{
									"key": "token",
									"value": "eyJhbGciOiJIUzUxMiJ9.eyJzdWIiOiIzIiwiaWF0IjoxNTgxNjc4Mzc0LCJleHAiOjE1ODE4OTQzNzR9.GeIbOcRX6Y0DCf0PGuHEIBsv24bxbLuLxbztE3mpSLoewXCGw8WdMMysjKr9vhbk8JwSLPSmyjZkQgsMaNFBpw",
									"type": "string"
								}
							]
						},
						"method": "GET",
						"header": [],
						"url": {
							"raw": "{{nd.host}}/sheets",
							"host": [
								"{{nd.host}}"
							],
							"path": [
								"sheets"
							]
						}
					},
					"response": []
				},
				{
					"name": "Update Sheet",
					"request": {
						"method": "PATCH",
						"header": [
							{
								"key": "Content-Type",
								"name": "Content-Type",
								"value": "application/json",
								"type": "text"
							}
						],
						"body": {
							"mode": "raw",
							"raw": "{\n\t\"name\": \"Default sheet\"\n}",
							"options": {
								"raw": {
									"language": "json"
								}
							}
						},
						"url": {
							"raw": "{{nd.host}}/sheets/1",
							"host": [
								"{{nd.host}}"
							],
							"path": [
								"sheets",
								"1"
							]
						}
					},
					"response": []
				},
				{
					"name": "Delete Sheet",
					"request": {
						"auth": {
							"type": "bearer",
							"bearer": [
								{
									"key": "token",
									"value": "eyJhbGciOiJIUzUxMiJ9.eyJzdWIiOiIzIiwiaWF0IjoxNTgxNjc4Mzc0LCJleHAiOjE1ODE4OTQzNzR9.GeIbOcRX6Y0DCf0PGuHEIBsv24bxbLuLxbztE3mpSLoewXCGw8WdMMysjKr9vhbk8JwSLPSmyjZkQgsMaNFBpw",
									"type": "string"
								}
							]
						},
						"method": "DELETE",
						"header": [],
						"url": {
							"raw": "{{nd.host}}/sheets/1",
							"host": [
								"{{nd.host}}"
							],
							"path": [
								"sheets",
								"1"
							]
						}
					},
					"response": []
				},
				{
					"name": "Create Sheet",
					"request": {
						"auth": {
							"type": "bearer",
							"bearer": [
								{
									"key": "token",
									"value": "eyJhbGciOiJIUzUxMiJ9.eyJzdWIiOiIzIiwiaWF0IjoxNTgxNjc4Mzc0LCJleHAiOjE1ODE4OTQzNzR9.GeIbOcRX6Y0DCf0PGuHEIBsv24bxbLuLxbztE3mpSLoewXCGw8WdMMysjKr9vhbk8JwSLPSmyjZkQgsMaNFBpw",
									"type": "string"
								}
							]
						},
						"method": "POST",
						"header": [
							{
								"key": "Content-Type",
								"name": "Content-Type",
								"value": "application/json",
								"type": "text"
							}
						],
						"body": {
							"mode": "raw",
							"raw": "{\n\t\"name\":\"custom_sheet\"\n}",
							"options": {
								"raw": {
									"language": "json"
								}
							}
						},
						"url": {
							"raw": "{{nd.host}}/projects/1/sheets",
							"host": [
								"{{nd.host}}"
							],
							"path": [
								"projects",
								"1",
								"sheets"
							]
						}
					},
					"response": []
				}
			],
			"protocolProfileBehavior": {}
		}
	],
	"protocolProfileBehavior": {}
}